[gd_scene load_steps=3 format=3 uid="uid://v7f3k41txy5n"]

[ext_resource type="Texture2D" uid="uid://jyhy6g0yc4l2" path="res://scenes/minigames/shapes/ico2.png" id="1_md60e"]
[ext_resource type="Script" path="res://scenes/minigames/shapes/ScaryIco.gd" id="2_wku50"]

[node name="ScaryIco" type="Sprite2D"]
texture = ExtResource("1_md60e")
script = ExtResource("2_wku50")
